[{
  "id": 1,
  "productName": "Apple iPhone 13 Pro 256GB ",
  "price": 25000,
  "imgUrl": "https://i.citrus.ua/imgcache/size_800/uploads/shop/7/6/764f8071b21fa3d7b7430ba518665d4d.jpg",
  "vendorСod": "001",
  "color": "Blue"
},
{
  "id": 2,
  "productName": "Apple iPhone 13 Pro 512GB ",
  "price": 27500,
  "imgUrl": "https://i.citrus.ua/imgcache/size_800/uploads/shop/f/0/f08b26b4064f92efff805758096263d6.jpg",
  "vendorСod": "002",
  "color": "Gold"
},
{
  "id": 3,
  "productName": "Apple iPhone 13 Pro 128GB ",
  "price": 25000,
  "imgUrl": "https://i.citrus.ua/imgcache/size_800/uploads/shop/5/0/5032bdce9349bf5fbdf7db6453fd940d.jpg",
  "vendorСod": "003",
  "color": "Graphite"
},
{
  "id": 4,
  "productName": "Apple iPhone 13 Pro 128G ",
  "price": 26500,
  "imgUrl": "https://i.citrus.ua/imgcache/size_800/uploads/shop/8/d/8d515e4a0b98bb5c151a628aada312a2.jpg",
  "vendorСod": "004",
  "color": "Silver"
},
{
  "id": 5,
  "productName": "Apple iPhone 13 256GB ",
  "price": 21200,
  "imgUrl": "https://i.citrus.ua/imgcache/size_800/uploads/shop/a/d/adfd7fe609d7f3c8ada9d42d54548377.jpg",
  "vendorСod": "005",
  "color": "Black"
},
{
  "id": 6,
  "productName": "Apple iPhone 13 128GB ",
  "price": 21400,
  "imgUrl": "https://i.citrus.ua/imgcache/size_800/uploads/shop/b/a/ba97b2f3e3add08c0e13a6a88ad1f5fe.jpg",
  "vendorСod": "006",
  "color": "Blue"
},
{
  "id": 7,
  "productName": "Apple iPhone 13 256GB ",
  "price": 21800,
  "imgUrl": "https://i.citrus.ua/imgcache/size_800/uploads/shop/a/1/a18c1ac3074066749ee7aa11ca96817b.jpg",
  "vendorСod": "007",
  "color": "Green"
},
{
  "id": 8,
  "productName": "Apple iPhone 13 128GB ",
  "price": 22200,
  "imgUrl": "https://i.citrus.ua/imgcache/size_800/uploads/shop/8/7/87594ff6071c1ce1a038e9a47723301d.jpg",
  "vendorСod": "008",
  "color": "Red"
},
{
  "id": 9,
  "productName": "Apple iPhone 13 128GB ",
  "price": 22300,
  "imgUrl": "https://i.citrus.ua/imgcache/size_800/uploads/shop/4/d/4d90818e9f9008216f8414628c8d2be5.jpg",
  "vendorСod": "009",
  "color": "White"
},
{
  "id": 10,
  "productName": "Apple iPhone 13 Pro Max 128GB ",
  "price": 30100,
  "imgUrl": "https://i.citrus.ua/imgcache/size_800/uploads/shop/b/d/bd11758a813d4b457ffba622b0a32e6b.jpg",
  "vendorСod": "010",
  "color": "Pacific Blue"
},
{
  "id": 11,
  "productName": "Apple iPhone 13 Pro Max 512GB ",
  "price": 30200,
  "imgUrl": "https://i.citrus.ua/imgcache/size_800/uploads/shop/3/0/30856e09107a8f55a8d8457f829424af.jpg",
  "vendorСod": "011",
  "color": "Gold"
},
{
  "id": 12,
  "productName": "Apple iPhone 13 Pro Max 512B ",
  "price": 30300,
  "imgUrl": "https://i.citrus.ua/imgcache/size_800/uploads/shop/6/0/60c1b77d2d801fa74d1f71555855edad.jpg",
  "vendorСod": "012",
  "color": "Graphite"
}
]
